{
    "promotions": [
        {
            "id": 1,
            "img": "/Iphonenoibat/img-1.jpg",
            "sale": "6,500,000 đ",
            "brand": "ClickBuyNow-Giao hàng 2h",
            "name": "Apple iPhone 12 64GB chính hãng VN/A",
            "price": "18,490,000 đ",
            "priceOld": "24,990,000 đ",
            "star": "home-product-item__star--gold fas fa-star",
            "evaluate": "(66 đánh giá)",
            "dictation": "",
            "installment": "Trả góp 0%",
            "manufacturer": "iPhone",
            "status": "iphonenoibat",
            "promotion": "yes"
        },
        {
            "id": 2,
            "img": "/Iphonenoibat/img-2.jpg",
            "sale": "5,540,000 đ",
            "brand": "ClickBuyNow-Giao hàng 2h",
            "name": "Apple iPhone 12 Pro Max 128GB chính hãng VN/A",
            "price": "28,450,000 đ",
            "priceOld": "33,990,000 đ",
            "star": "home-product-item__star--gold fas fa-star",
            "evaluate": "(69 đánh giá)",
            "dictation": "",
            "installment": "Trả góp 0%",
            "manufacturer": "iPhone",
            "status": "iphonenoibat",
            "promotion": "yes"
        },
        {
            "id": 3,
            "img": "/Iphonenoibat/img-3.jpg",
            "sale": "7,200,000 đ",
            "brand": "ClickBuyNow-Giao hàng 2h",
            "name": "Apple iPhone 12 Pro 128GB chính hãng VN/A",
            "price": "25,790,000 đ",
            "priceOld": "32,990,000 đ",
            "star": "home-product-item__star--gold fas fa-star",
            "evaluate": "(55 đánh giá)",
            "dictation": "Mới ra mắt",
            "installment": "Trả góp 0%",
            "manufacturer": "iPhone",
            "status": "iphonenoibat",
            "promotion": "yes"
        },
        {
            "id": 4,
            "img": "/Iphonenoibat/img-4.jpg",
            "sale": "4,300,000 đ",
            "brand": "ClickBuyNow-Giao hàng 2h",
            "name": "Apple iPhone 12 Pro Max Lock 128GB Mới Trần",
            "price": "22,990,000 đ",
            "priceOld": "27,290,000 đ",
            "star": "home-product-item__star--gold fas fa-star",
            "evaluate": "(68 đánh giá)",
            "dictation": "",
            "installment": "",
            "manufacturer": "iPhone",
            "status": "iphonenoibat",
            "promotion": "yes"
        },
        {
            "id": 5,
            "img": "/Iphonenoibat/img-5.jpg",
            "sale": "2,710,,000 đ",
            "brand": "ClickBuyNow-Giao hàng 2h",
            "name": "Apple iPhone 11 Pro Max 64GB Cũ 99%",
            "price": "17,690,000 đ",
            "priceOld": "20,400,000 đ",
            "star": "home-product-item__star--gold fas fa-star",
            "evaluate": "(201 đánh giá)",
            "dictation": "",
            "installment": "Trả góp 0%",
            "manufacturer": "iPhone",
            "status": "iphonenoibat",
            "promotion": "no"
        },
        {
            "id": 6,
            "img": "/Iphonenoibat/img-6.jpg",
            "sale": "2,400,,000 đ",
            "brand": "ClickBuyNow-Giao hàng 2h",
            "name": "Apple iPhone 11 Pro 64GB Cũ 99%",
            "price": "15,590,000 đ",
            "priceOld": "17,990,000 đ",
            "star": "home-product-item__star--gold fas fa-star",
            "evaluate": "(171 đánh giá)",
            "dictation": "",
            "installment": "Trả góp 0%",
            "manufacturer": "iPhone",
            "status": "iphonenoibat",
            "promotion": "no"
        },
        {
            "id": 7,
            "img": "/Iphonenoibat/img-7.jpg",
            "sale": "1,500,000 đ",
            "brand": "ClickBuyNow-Giao hàng 2h",
            "name": "Apple iPhone XS MAX 64GB chính hãng VN/A",
            "price": "11,490,000 đ",
            "priceOld": "12,990,000 đ",
            "star": "home-product-item__star--gold fas fa-star",
            "evaluate": "(85 đánh giá)",
            "dictation": "",
            "installment": "",
            "manufacturer": "iPhone",
            "status": "iphonenoibat",
            "promotion": "no"
        },
        {
            "id": 8,
            "img": "/Iphonenoibat/img-8.jpg",
            "sale": "6,500,000 đ",
            "brand": "ClickBuyNow-Giao hàng 2h",
            "name": "Apple iphone 12 64GB chính hãng VN/A",
            "price": "18,490,000 đ",
            "priceOld": "24,990,000 đ",
            "star": "home-product-item__star--gold fas fa-star",
            "evaluate": "(85 đánh giá)",
            "dictation": "",
            "installment": "Trả góp 0%",
            "manufacturer": "iPhone",
            "status": "iphonenoibat",
            "promotion": "no"
        },
        {
            "id": 9,
            "img": "/Iphonenoibat/img-9.jpg",
            "sale": "6,500,000 đ",
            "brand": "ClickBuyNow-Giao hàng 2h",
            "name": "Apple iphone 12 64GB chính hãng VN/A",
            "price": "18,490,000 đ",
            "priceOld": "24,990,000 đ",
            "star": "home-product-item__star--gold fas fa-star",
            "evaluate": "(85 đánh giá)",
            "dictation": "",
            "installment": "Trả góp 0%",
            "manufacturer": "iPhone",
            "status": "iphonenoibat",
            "promotion": "no"
        },
        {
            "id": 10,
            "img": "/Iphonenoibat/img-10.jpg",
            "sale": "6,500,000 đ",
            "brand": "ClickBuyNow-Giao hàng 2h",
            "name": "Apple iphone 12 64GB chính hãng VN/A",
            "price": "18,490,000 đ",
            "priceOld": "24,990,000 đ",
            "star": "home-product-item__star--gold fas fa-star",
            "evaluate": "(85 đánh giá)",
            "dictation": "Mới ra mắt",
            "installment": "",
            "manufacturer": "iPhone",
            "status": "iphonenoibat",
            "promotion": "no"
        },
        {
            "id": 11,
            "img": "/Samsungnoibat/1.jpg",
            "sale": "2,300,000 đ",
            "brand": "ClickBuyNow-Giao hàng 2h",
            "name": "Samsung Galaxy A72 Chính Hãng (8GB/128GB)",
            "price": "9,190,000 đ",
            "priceOld": "11,490,000 đ",
            "star": "home-product-item__star--gold fas fa-star",
            "evaluate": "(2 đánh giá)",
            "dictation": "Mới ra mắt",
            "installment": "Trả góp 0%",
            "manufacturer": "Samsung",
            "status": "samsungnoibat",
            "promotion": "yes"
        },
        {
            "id": 12,
            "img": "/Samsungnoibat/2.jpg",
            "sale": "500,000 đ",
            "brand": "ClickBuyNow-Giao hàng 2h",
            "name": "Samsung Galaxy A22 Chính Hãng (6GB/128GB)",
            "price": "5,650,000 đ",
            "priceOld": "5,890,000 đ",
            "star": "home-product-item__star--gold fas fa-star",
            "evaluate": "(1 đánh giá)",
            "dictation": "",
            "installment": "Trả góp 0%",
            "manufacturer": "Samsung",
            "status": "samsungnoibat",
            "promotion": "yes"
        },
        {
            "id": 13,
            "img": "/Samsungnoibat/3.jpg",
            "sale": "1,040,000 đ",
            "brand": "ClickBuyNow-Giao hàng 2h",
            "name": "Samsung Galaxy A32 Chính Hãng (8GB/128GB)",
            "price": "5,650,000 đ",
            "priceOld": "6,690,000 đ",
            "star": "home-product-item__star--gold fas fa-star",
            "evaluate": "(8 đánh giá)",
            "dictation": "Mới ra mắt",
            "installment": "Trả góp 0%",
            "manufacturer": "Samsung",
            "status": "samsungnoibat",
            "promotion": "yes"
        },
        {
            "id": 14,
            "img": "/Samsungnoibat/4.jpg",
            "sale": "600,000 đ",
            "brand": "ClickBuyNow-Giao hàng 2h",
            "name": "Samsung Galaxy A12 Chính Hãng (8GB/128GB)",
            "price": "3,690,000 đ",
            "priceOld": "4,290,000 đ",
            "star": "home-product-item__star--gold fas fa-star",
            "evaluate": "(12 đánh giá)",
            "dictation": "",
            "installment": "",
            "manufacturer": "Samsung",
            "status": "samsungnoibat",
            "promotion": "no"
        },
        {
            "id": 15,
            "img": "/Samsungnoibat/5.jpg",
            "sale": "2,900,000 đ",
            "brand": "ClickBuyNow-Giao hàng 2h",
            "name": "Samsung Galaxy Note 10 Plus 256GB cũ 99%",
            "price": "10,290,000 đ",
            "priceOld": "13,190,000 đ",
            "star": "home-product-item__star--gold fas fa-star",
            "evaluate": "(39 đánh giá)",
            "dictation": "Mới ra mắt",
            "installment": "Trả góp 0%",
            "manufacturer": "Samsung",
            "status": "samsungnoibat",
            "promotion": "no"
        },
        {
            "id": 16,
            "img": "/Samsungnoibat/6.jpg",
            "sale": "3,000,000 đ",
            "brand": "ClickBuyNow-Giao hàng 2h",
            "name": "Samsung Galaxy S10 5G 256GB cũ 99%",
            "price": "6,990,000 đ",
            "priceOld": "9,990,000 đ",
            "star": "home-product-item__star--gold fas fa-star",
            "evaluate": "(30 đánh giá)",
            "dictation": "",
            "installment": "Trả góp 0%",
            "manufacturer": "Samsung",
            "status": "samsungnoibat",
            "promotion": "no"
        },
        {
            "id": 17,
            "img": "/Samsungnoibat/7.png",
            "sale": "1,000,000 đ",
            "brand": "ClickBuyNow-Giao hàng 2h",
            "name": "Samsung Galaxy Note 9 64Gb cũ 99% (Bản Mỹ)",
            "price": "18,490,000 đ",
            "priceOld": "24,990,000 đ",
            "star": "home-product-item__star--gold fas fa-star",
            "evaluate": "(231 đánh giá)",
            "dictation": "",
            "installment": "",
            "manufacturer": "Samsung",
            "status": "samsungnoibat",
            "promotion": "no"
        },
        {
            "id": 18,
            "img": "/Samsungnoibat/8.png",
            "sale": "2,400,000 đ",
            "brand": "ClickBuyNow-Giao hàng 2h",
            "name": "Samsung Galaxy S10 Plus 64GB cũ 99%",
            "price": "4,890,000 đ",
            "priceOld": "7,290,000 đ",
            "star": "home-product-item__star--gold fas fa-star",
            "evaluate": "(266 đánh giá)",
            "dictation": "",
            "installment": "Trả góp 0%",
            "manufacturer": "Samsung",
            "status": "samsungnoibat",
            "promotion": "no"
        },
        {
            "id": 19,
            "img": "/Samsungnoibat/9.png",
            "sale": "2,200,000 đ",
            "brand": "ClickBuyNow-Giao hàng 2h",
            "name": "Samsung Galaxy S9 64GB cũ 99%",
            "price": "3,590,000 đ",
            "priceOld": "5,790,000 đ",
            "star": "home-product-item__star--gold fas fa-star",
            "evaluate": "(162 đánh giá)",
            "dictation": "",
            "installment": "Trả góp 0%",
            "manufacturer": "Samsung",
            "status": "samsungnoibat",
            "promotion": "no"
        },
        {
            "id": 20,
            "img": "/Samsungnoibat/10.jpg",
            "sale": "1,000,000 đ",
            "brand": "ClickBuyNow-Giao hàng 2h",
            "name": "Samsung Galaxy A9 Pro 2019 (A8S) 6GB 128GB cũ 99%",
            "price": "3,490,000 đ",
            "priceOld": "4,990,000 đ",
            "star": "home-product-item__star--gold fas fa-star",
            "evaluate": "(21 đánh giá)",
            "dictation": "",
            "installment": "",
            "manufacturer": "Samsung",
            "status": "samsungnoibat",
            "promotion": "no"
        },
        {
            "id": 21,
            "img": "/Tabletnoibat/1.jpg",
            "sale": "1,500,000 đ",
            "brand": "ClickBuyNow-Giao hàng 2h",
            "name": "Samsung Galaxy A72 Chính Hãng (8GB/128GB)",
            "price": "20,490,000 đ",
            "priceOld": "21,990,000 đ",
            "star": "home-product-item__star--gold fas fa-star",
            "evaluate": "(9 đánh giá)",
            "dictation": "Mới ra mắt",
            "installment": "Trả góp 0%",
            "logo": "khuyenmai/logo.svg",
            "manufacturer": "Tablet",
            "status": "tabletnoibat",
            "promotion": "no"
        },
        {
            "id": 22,
            "img": "/Tabletnoibat/2.jpg",
            "sale": "2,400,000 đ",
            "brand": "ClickBuyNow-Giao hàng 2h",
            "name": "Samsung Galaxy A22 Chính Hãng (6GB/128GB)",
            "price": "14,590,000 đ",
            "priceOld": "16,990,000 đ",
            "star": "home-product-item__star--gold fas fa-star",
            "evaluate": "(5 đánh giá)",
            "dictation": "",
            "installment": "Trả góp 0%",
            "logo": "khuyenmai/logo.svg",
            "manufacturer": "Tablet",
            "status": "tabletnoibat",
            "promotion": "no"
        },
        {
            "id": 23,
            "img": "/Tabletnoibat/3.jpg",
            "sale": "1,000,000 đ",
            "brand": "ClickBuyNow-Giao hàng 2h",
            "name": "Samsung Galaxy A32 Chính Hãng (8GB/128GB)",
            "price": "8,990.,000 đ",
            "priceOld": "9,990,000 đ",
            "star": "home-product-item__star--gold fas fa-star",
            "evaluate": "(10 đánh giá)",
            "dictation": "Mới ra mắt",
            "installment": "Trả góp 0%",
            "logo": "khuyenmai/logo.svg",
            "manufacturer": "Tablet",
            "status": "tabletnoibat",
            "promotion": "no"
        },
        {
            "id": 24,
            "img": "/Tabletnoibat/4.png",
            "sale": "300,000 đ",
            "brand": "ClickBuyNow-Giao hàng 2h",
            "name": "Samsung Galaxy A12 Chính Hãng (8GB/128GB)",
            "price": "5,690,000 đ",
            "priceOld": "5,990,000 đ",
            "star": "home-product-item__star--gold fas fa-star",
            "evaluate": "(12 đánh giá)",
            "dictation": "",
            "installment": "",
            "logo": "khuyenmai/logo.svg",
            "manufacturer": "Tablet",
            "status": "tabletnoibat",
            "promotion": "no"
        },
        {
            "id": 25,
            "img": "/Tabletnoibat/5.jpg",
            "sale": "500,000 đ",
            "brand": "ClickBuyNow-Giao hàng 2h",
            "name": "Samsung Galaxy Note 10 Plus 256GB cũ 99%",
            "price": "3,190,000 đ",
            "priceOld": "3,690,000 đ",
            "star": "home-product-item__star--gold fas fa-star",
            "evaluate": "(132 đánh giá)",
            "dictation": "Mới ra mắt",
            "installment": "Trả góp 0%",
            "logo": "khuyenmai/logo.svg",
            "manufacturer": "Tablet",
            "status": "Tabletnoibat",
            "promotion": "no"
        },
        {
            "id": 26,
            "img": "/Dongho/1.jpg",
            "sale": "1,000,000 đ",
            "brand": "ClickBuyNow-Giao hàng 2h",
            "name": "Apple Watch Series 5 LTE 40mm – Mới chưa active",
            "price": "6,490,000 đ",
            "priceOld": "7,490,000 đ",
            "star": "home-product-item__star--gold fas fa-star",
            "evaluate": "(23 đánh giá)",
            "dictation": "",
            "installment": "Trả góp 0%",
            "logo": "khuyenmai/logo.svg",
            "manufacturer": "Dongho",
            "status": "donghonoibat",
            "promotion": "no"
        },
        {
            "id": 27,
            "img": "/Dongho/2.jpg",
            "sale": "500,000 đ",
            "brand": "ClickBuyNow-Giao hàng 2h",
            "name": "Apple Watch Series 3 Lte 38mm – Mới chưa Active",
            "price": "3,790,000 đ",
            "priceOld": "4,290,000 đ",
            "star": "home-product-item__star--gold fas fa-star",
            "evaluate": "(18 đánh giá)",
            "dictation": "",
            "installment": "Trả góp 0%",
            "logo": "khuyenmai/logo.svg",
            "manufacturer": "Dongho",
            "status": "donghonoibat",
            "promotion": "no"
        },
        {
            "id": 28,
            "img": "/Dongho/3.jpg",
            "sale": "1,240,000 đ",
            "brand": "ClickBuyNow-Giao hàng 2h",
            "name": "Apple Watch Series 3 GPS 38mm – Chính hãng VN/A",
            "price": "4,950.,000 đ",
            "priceOld": "6,190,000 đ",
            "star": "home-product-item__star--gold fas fa-star",
            "evaluate": "(10 đánh giá)",
            "dictation": "",
            "installment": "Trả góp 0%",
            "logo": "khuyenmai/logo.svg",
            "manufacturer": "Dongho",
            "status": "donghonoibat",
            "promotion": "no"
        },
        {
            "id": 29,
            "img": "/Dongho/4.jpg",
            "sale": "1,000,000d",
            "brand": "ClickBuyNow-Giao hàng 2h",
            "name": "Apple Watch Series 6 40mm GPS (Viền nhôm dây cao su) – Chính hãng VN/A",
            "price": "9,790,000 đ",
            "priceOld": "10,790,000 đ",
            "star": "home-product-item__star--gold fas fa-star",
            "evaluate": "(1 đánh giá)",
            "dictation": "Mới ra mắt",
            "installment": "Trả góp 0%",
            "logo": "khuyenmai/logo.svg",
            "manufacturer": "Dongho",
            "status": "donghonoibat",
            "promotion": "no"
        },
        {
            "id": 30,
            "img": "/Dongho/5.jpg",
            "sale": "1,000,000 đ",
            "brand": "ClickBuyNow-Giao hàng 2h",
            "name": "Apple Watch Series 6 40mm LTE (Viền nhôm dây cao su) – Chính hãng VN/A",
            "price": "11,990,000 đ",
            "priceOld": "12,990,000",
            "star": "home-product-item__star--gold fas fa-star",
            "evaluate": "(2 đánh giá)",
            "dictation": "Mới ra mắtt",
            "installment": "Trả góp 0%",
            "logo": "khuyenmai/logo.svg",
            "manufacturer": "Dongho",
            "status": "donghonoibat",
            "promotion": "no"
        },
        {
            "id": 31,
            "img": "/Laptop/1.jpg",
            "sale": "1,410,000 đ",
            "brand": "ClickBuyNow-Giao hàng 2h",
            "name": "Macbook Air M1 13′ 8GB 256GB Chính hãng VietNam",
            "price": "24,890,000 đ",
            "priceOld": "26,300,000 đ",
            "star": "home-product-item__star--gold fas fa-star",
            "evaluate": "(9 đánh giá)",
            "dictation": "Mới ra mắt",
            "installment": "Trả góp 0%",
            "logo": "khuyenmai/logo.svg",
            "manufacturer": "Laptop",
            "status": "laptopnoibat",
            "promotion": "no"
        },
        {
            "id": 32,
            "img": "/Laptop/2.jpg",
            "sale": "500,000 đ",
            "brand": "ClickBuyNow-Giao hàng 2h",
            "name": "Macbook Air M1 13′ 16GB 256GB Chính hãng Vietnam",
            "price": "30,490,000 đ",
            "priceOld": "30,990,000 đ",
            "star": "home-product-item__star--gold fas fa-star",
            "evaluate": "(5 đánh giá)",
            "dictation": "",
            "installment": "Trả góp 0%",
            "logo": "khuyenmai/logo.svg",
            "manufacturer": "Laptop",
            "status": "laptopnoibat",
            "promotion": "no"
        },
        {
            "id": 33,
            "img": "/Laptop/3.jpg",
            "sale": "",
            "brand": "ClickBuyNow-Giao hàng 2h",
            "name": "Macbook Pro M1 13′ 8GB 256GB Chính hãng Vietnam",
            "price": "30,790.,000 đ",
            "priceOld": "",
            "star": "home-product-item__star--gold fas fa-star",
            "evaluate": "(10 đánh giá)",
            "dictation": "Mới ra mắt",
            "installment": "Trả góp 0%",
            "logo": "khuyenmai/logo.svg",
            "manufacturer": "Laptop",
            "status": "laptopnoibat",
            "promotion": "no"
        },
        {
            "id": 34,
            "img": "/Laptop/4.jpg",
            "sale": "200,000 đ",
            "brand": "ClickBuyNow-Giao hàng 2h",
            "name": "Macbook Pro M1 13′ 16GB 256GB Chính hãng Vietnam",
            "price": "37,790,000 đ",
            "priceOld": "37,990,000 đ",
            "star": "home-product-item__star--gold fas fa-star",
            "evaluate": "(12 đánh giá)",
            "dictation": "",
            "installment": "",
            "logo": "khuyenmai/logo.svg",
            "manufacturer": "Laptop",
            "status": "laptopnoibat",
            "promotion": "no"
        },
        {
            "id": 34,
            "img": "/Laptop/5.jpg",
            "sale": "",
            "brand": "ClickBuyNow-Giao hàng 2h",
            "name": "Macbook Pro M1 13′ 8GB 512GB Chính hãng Vietnam",
            "price": "35,990,000 đ",
            "priceOld": "",
            "star": "home-product-item__star--gold fas fa-star",
            "evaluate": "(132 đánh giá)",
            "dictation": "Mới ra mắt",
            "installment": "Trả góp 0%",
            "logo": "khuyenmai/logo.svg",
            "manufacturer": "Laptop",
            "status": "laptopnoibat",
            "promotion": "no"
        }
    ]
}
